// Jest Snapshot v1, https://goo.gl/fbAQLP

exports[`ListItem Tests should render ListItem 1`] = `
<DocumentFragment>
  <div
    class="MuiPaper-root MuiCard-root listItem MuiPaper-elevation1 MuiPaper-rounded"
  >
    <h3
      class="listItemTitle"
    />
  </div>
</DocumentFragment>
`;

exports[`ListItem Tests should render ListItem with data 1`] = `
<DocumentFragment>
  <div
    class="MuiPaper-root MuiCard-root listItem MuiPaper-elevation1 MuiPaper-rounded"
  >
    <h3
      class="listItemTitle"
    >
      Book Title
    </h3>
  </div>
</DocumentFragment>
`;
